[
  {
    "id" : 1,
    "name" : "irva",
    "nim" : "12345678",
    "fakultas" : "Teknik",
    "jenis_surat" : "Surat Keterangan Cuti",
    "lampiran" : "Download"
  },
  {
    "id" : 2,
    "name" : "Rizal",
    "nim" : "12345678",
    "fakultas" : "Teknik",
    "jenis_surat" : "Surat Keterangan Cuti",
    "lampiran" : "Download"
  },
  {
    "id" : 3,
    "name" : "Fathan",
    "nim" : "12345678",
    "fakultas" : "Teknik",
    "jenis_surat" : "Surat Keterangan Cuti",
    "lampiran" : "Download"
  },
  {
    "id" :5,
    "name" : "Difan",
    "nim" : "12345678",
    "fakultas" : "Teknik",
    "jenis_surat" : "Surat Keterangan Cuti",
    "lampiran" : "Download"
  },
  {
    "id" : 6,
    "name" : "Satrio",
    "nim" : "12345678",
    "fakultas" : "Teknik",
    "jenis_surat" : "Surat Keterangan Cuti",
    "lampiran" : "Download"
  },
  {
    "id" : 7,
    "name" : "Boeh",
    "nim" : "12345678",
    "fakultas" : "Teknik",
    "jenis_surat" : "Surat Keterangan Cuti",
    "lampiran" : "Download"
  },
  {
    "id" : 8,
    "name" : "Stu",
    "nim" : "12345678",
    "fakultas" : "Teknik",
    "jenis_surat" : "Surat Keterangan Cuti",
    "lampiran" : "Download"
  }
]